{
  "source": {
    "organization": "ISO",
    "generated": "2020-10-06T15:19:33.833+02:00",
    "schemaVersion": "1.1.0"
  },
  "document": [
    {
      "urn": "iso:doc:fb4b1c6d-9df0-44ec-991c-79c4126161d6",
      "urnAlt": [
        "iso:doc:21449603"
      ],
      "type": "PROJECT",
      "subType": "OTHER",
      "reference": "Final Disposition of Comments NP 5339",
      "NNumber": 419,
      "title": [],
      "originator": {
        "urn": "iso:committee:7251431",
        "urnAlt": [],
        "targetType": "WORKING_GROUP",
        "displayName": "ISO/IEC JTC 1/SC 42/WG 4"
      },
      "references": {
        "path": {
          "folder": [
            "Projects",
            "5339"
          ]
        },
        "projects": [
          {
            "content": {
              "urn": "iso:proj:81120",
              "urnAlt": [],
              "targetType": "STANDARD",
              "displayName": "ISO/IEC WD 5339"
            }
          }
        ]
      },
      "lifecycle": {
        "status": "WITHDRAWN",
        "version": "0.3",
        "creation": {
          "date": "2020-09-05T05:07:41.150+02:00",
          "actor": {
            "urn": "iso:person:6896671",
            "urnAlt": [],
            "targetType": "PERSON",
            "displayName": "maruyama.f@fujitsu.com"
          }
        },
        "lastModification": {
          "date": "2020-09-05T06:19:19.822+02:00",
          "actor": {
            "urn": "iso:person:6896671",
            "urnAlt": [],
            "targetType": "PERSON",
            "displayName": "maruyama.f@fujitsu.com"
          }
        },
        "action": {
          "actionType": "INFO"
        }
      },
      "relations": [
        {
          "type": "REPLACED_BY",
          "urn": "iso:doc:d3a3ba33-97d2-4507-b98b-703b8638f137",
          "urnAlt": []
        }
      ],
      "releaseItems": [
        {
          "type": "DOCUMENT",
          "format": "PDF",
          "contentLanguage": [],
          "contentRef": {
            "id": "iso:doc:fb4b1c6d-9df0-44ec-991c-79c4126161d6",
            "url": "https://api.iso.org/documents/dms/iso:doc:fb4b1c6d-9df0-44ec-991c-79c4126161d6",
            "contentLength": 159043,
            "mimeType": "application/pdf",
            "fileName": "ISO-IECJTC1-SC42-WG4_N419_Final_Disposition_of_Comments_NP_5339",
            "fileExtension": "pdf",
            "checksum": "MD5=40c963f4ba22d7e4d9fead85a8ecac08"
          }
        }
      ],
      "lastChangeTimestamp": "2020-09-05T06:19:19.822+02:00"
    }
  ]
}