{
  "source": {
    "organization": "ISO",
    "generated": "2022-03-21T16:42:38.164",
    "schemaVersion": "1.1.2"
  },
  "role": [
    {
      "urn": "iso:role:6184366",
      "key": "BAL_CP",
      "status": "APPOINTED",
      "from": {
        "urn": "iso:committee:45986",
        "targetType": "COMMITTEE",
        " displayName": "obfuscatedForSample"
      },
      "to": {
        "urn": "iso:person:6022813",
        "targetType": "PERSON",
        " displayName": "obfuscatedForSample"
      },
      "appointedBy": {
        "urn": "iso:organization:1667",
        "targetType": "ORGANIZATION",
        " displayName": "obfuscatedForSample"
      },
      "metadata": {
        "ballotTypes": [
          "FDIS",
          "DIS",
          "CIB",
          "SR"
        ],
        "relationCapacities": {
          "relationCapacity": []
        }
      },
      "creationTimestamp": "2016-06-14T19:03:50.000+02:00"
    },
    {
      "urn": "iso:role:6185887",
      "key": "BAL_CP",
      "status": "APPOINTED",
      "from": {
        "urn": "iso:committee:45986",
        "targetType": "COMMITTEE",
        " displayName": "obfuscatedForSample"
      },
      "to": {
        "urn": "iso:person:510255",
        "targetType": "PERSON",
        " displayName": "obfuscatedForSample"
      },
      "appointedBy": {
        "urn": "iso:organization:1511",
        "targetType": "ORGANIZATION",
        " displayName": "obfuscatedForSample"
      },
      "metadata": {
        "ballotTypes": [
          "CIB",
          "SR"
        ],
        "relationCapacities": {
          "relationCapacity": []
        }
      },
      "creationTimestamp": "2016-06-16T04:01:46.000+02:00"
    },
    {
      "urn": "iso:role:6201869",
      "key": "BAL_CP",
      "status": "APPOINTED",
      "from": {
        "urn": "iso:committee:45986",
        "targetType": "COMMITTEE",
        " displayName": "obfuscatedForSample"
      },
      "to": {
        "urn": "iso:person:538707",
        "targetType": "PERSON",
        " displayName": "obfuscatedForSample"
      },
      "appointedBy": {
        "urn": "iso:organization:1561",
        "targetType": "ORGANIZATION",
        " displayName": "obfuscatedForSample"
      },
      "metadata": {
        "ballotTypes": [
          "FDIS",
          "DIS",
          "CIB",
          "SR"
        ],
        "relationCapacities": {
          "relationCapacity": []
        }
      },
      "creationTimestamp": "2016-06-30T11:43:01.000+02:00"
    },
    {
      "urn": "iso:role:6202363",
      "key": "MBR_CP",
      "status": "APPOINTED",
      "from": {
        "urn": "iso:committee:45986",
        "targetType": "COMMITTEE",
        " displayName": "obfuscatedForSample"
      },
      "to": {
        "urn": "iso:person:538707",
        "targetType": "PERSON",
        " displayName": "obfuscatedForSample"
      },
      "appointedBy": {
        "urn": "iso:organization:1561",
        "targetType": "ORGANIZATION",
        " displayName": "obfuscatedForSample"
      },
      "metadata": {
        "ballotTypes": [],
        "relationCapacities": {
          "relationCapacity": []
        }
      },
      "creationTimestamp": "2016-06-30T13:14:13.000+02:00"
    },
    {
      "urn": "iso:role:6209483",
      "key": "BAL_CP",
      "status": "APPOINTED",
      "from": {
        "urn": "iso:committee:45986",
        "targetType": "COMMITTEE",
        " displayName": "obfuscatedForSample"
      },
      "to": {
        "urn": "iso:person:526687",
        "targetType": "PERSON",
        " displayName": "obfuscatedForSample"
      },
      "appointedBy": {
        "urn": "iso:organization:1511",
        "targetType": "ORGANIZATION",
        " displayName": "obfuscatedForSample"
      },
      "metadata": {
        "ballotTypes": [
          "CIB",
          "SR"
        ],
        "relationCapacities": {
          "relationCapacity": []
        }
      },
      "creationTimestamp": "2016-07-07T04:23:42.000+02:00"
    },
    {
      "urn": "iso:role:6209488",
      "key": "BMO_CP",
      "status": "APPOINTED",
      "from": {
        "urn": "iso:committee:45986",
        "targetType": "COMMITTEE",
        " displayName": "obfuscatedForSample"
      },
      "to": {
        "urn": "iso:person:526687",
        "targetType": "PERSON",
        " displayName": "obfuscatedForSample"
      },
      "appointedBy": {
        "urn": "iso:organization:1511",
        "targetType": "ORGANIZATION",
        " displayName": "obfuscatedForSample"
      },
      "metadata": {
        "ballotTypes": [
          "FDIS",
          "DIS"
        ],
        "relationCapacities": {
          "relationCapacity": []
        }
      },
      "creationTimestamp": "2016-07-07T04:24:26.000+02:00"
    },
    {
      "urn": "iso:role:6210336",
      "key": "MBR_CP",
      "status": "APPOINTED",
      "from": {
        "urn": "iso:committee:45986",
        "targetType": "COMMITTEE",
        " displayName": "obfuscatedForSample"
      },
      "to": {
        "urn": "iso:person:5128472",
        "targetType": "PERSON",
        " displayName": "obfuscatedForSample"
      },
      "appointedBy": {
        "urn": "iso:organization:1680",
        "targetType": "ORGANIZATION",
        " displayName": "obfuscatedForSample"
      },
      "metadata": {
        "ballotTypes": [],
        "relationCapacities": {
          "relationCapacity": []
        }
      },
      "creationTimestamp": "2016-07-07T14:08:44.000+02:00"
    },
    {
      "urn": "iso:role:6212977",
      "key": "DMO_CP",
      "status": "APPOINTED",
      "from": {
        "urn": "iso:committee:45986",
        "targetType": "COMMITTEE",
        " displayName": "obfuscatedForSample"
      },
      "to": {
        "urn": "iso:person:526687",
        "targetType": "PERSON",
        " displayName": "obfuscatedForSample"
      },
      "appointedBy": {
        "urn": "iso:organization:1511",
        "targetType": "ORGANIZATION",
        " displayName": "obfuscatedForSample"
      },
      "metadata": {
        "ballotTypes": [],
        "relationCapacities": {
          "relationCapacity": []
        }
      },
      "creationTimestamp": "2016-07-08T23:27:11.000+02:00"
    },
    {
      "urn": "iso:role:6221625",
      "key": "BMO_CP",
      "status": "APPOINTED",
      "from": {
        "urn": "iso:committee:45986",
        "targetType": "COMMITTEE",
        " displayName": "obfuscatedForSample"
      },
      "to": {
        "urn": "iso:person:511922",
        "targetType": "PERSON",
        " displayName": "obfuscatedForSample"
      },
      "appointedBy": {
        "urn": "iso:organization:1529",
        "targetType": "ORGANIZATION",
        " displayName": "obfuscatedForSample"
      },
      "metadata": {
        "ballotTypes": [
          "FDIS",
          "DIS",
          "CIB",
          "SR"
        ],
        "relationCapacities": {
          "relationCapacity": []
        }
      },
      "creationTimestamp": "2016-07-19T16:06:49.000+02:00"
    },
    {
      "urn": "iso:role:6234253",
      "key": "MBR_CP",
      "status": "APPOINTED",
      "from": {
        "urn": "iso:committee:45986",
        "targetType": "COMMITTEE",
        " displayName": "obfuscatedForSample"
      },
      "to": {
        "urn": "iso:person:6043138",
        "targetType": "PERSON",
        " displayName": "obfuscatedForSample"
      },
      "appointedBy": {
        "urn": "iso:organization:2027",
        "targetType": "ORGANIZATION",
        " displayName": "obfuscatedForSample"
      },
      "metadata": {
        "ballotTypes": [],
        "relationCapacities": {
          "relationCapacity": []
        }
      },
      "creationTimestamp": "2016-08-02T14:49:15.000+02:00"
    },
    {
      "urn": "iso:role:6242985",
      "key": "DMO_CP",
      "status": "APPOINTED",
      "from": {
        "urn": "iso:committee:45986",
        "targetType": "COMMITTEE",
        " displayName": "obfuscatedForSample"
      },
      "to": {
        "urn": "iso:person:5909756",
        "targetType": "PERSON",
        " displayName": "obfuscatedForSample"
      },
      "appointedBy": {
        "urn": "iso:organization:2027",
        "targetType": "ORGANIZATION",
        " displayName": "obfuscatedForSample"
      },
      "metadata": {
        "ballotTypes": [],
        "relationCapacities": {
          "relationCapacity": []
        }
      },
      "creationTimestamp": "2016-08-15T14:31:03.000+02:00"
    },
    {
      "urn": "iso:role:6270313",
      "key": "BAL_CP",
      "status": "APPOINTED",
      "from": {
        "urn": "iso:committee:45986",
        "targetType": "COMMITTEE",
        " displayName": "obfuscatedForSample"
      },
      "to": {
        "urn": "iso:person:6270275",
        "targetType": "PERSON",
        " displayName": "obfuscatedForSample"
      },
      "appointedBy": {
        "urn": "iso:organization:1734",
        "targetType": "ORGANIZATION",
        " displayName": "obfuscatedForSample"
      },
      "metadata": {
        "ballotTypes": [
          "FDIS",
          "DIS",
          "CIB",
          "SR"
        ],
        "relationCapacities": {
          "relationCapacity": []
        }
      },
      "creationTimestamp": "2016-09-15T08:56:04.000+02:00"
    },
    {
      "urn": "iso:role:6289005",
      "key": "BAL_CP",
      "status": "APPOINTED",
      "from": {
        "urn": "iso:committee:45986",
        "targetType": "COMMITTEE",
        " displayName": "obfuscatedForSample"
      },
      "to": {
        "urn": "iso:person:527478",
        "targetType": "PERSON",
        " displayName": "obfuscatedForSample"
      },
      "appointedBy": {
        "urn": "iso:organization:2139",
        "targetType": "ORGANIZATION",
        " displayName": "obfuscatedForSample"
      },
      "metadata": {
        "ballotTypes": [
          "FDIS",
          "DIS",
          "CIB",
          "SR"
        ],
        "relationCapacities": {
          "relationCapacity": []
        }
      },
      "creationTimestamp": "2016-09-30T16:18:06.000+02:00"
    },
    {
      "urn": "iso:role:6307253",
      "key": "EDIT_CP",
      "status": "APPOINTED",
      "from": {
        "urn": "iso:committee:45986",
        "targetType": "COMMITTEE",
        " displayName": "obfuscatedForSample"
      },
      "to": {
        "urn": "iso:person:6170460",
        "targetType": "PERSON",
        " displayName": "obfuscatedForSample"
      },
      "appointedBy": {
        "urn": "iso:organization:68",
        "targetType": "ORGANIZATION",
        " displayName": "obfuscatedForSample"
      },
      "metadata": {
        "ballotTypes": [],
        "relationCapacities": {
          "relationCapacity": []
        }
      },
      "creationTimestamp": "2016-10-18T15:31:31.000+02:00"
    },
    {
      "urn": "iso:role:6316737",
      "key": "BAL_CP",
      "status": "APPOINTED",
      "from": {
        "urn": "iso:committee:45986",
        "targetType": "COMMITTEE",
        " displayName": "obfuscatedForSample"
      },
      "to": {
        "urn": "iso:person:4417687",
        "targetType": "PERSON",
        " displayName": "obfuscatedForSample"
      },
      "appointedBy": {
        "urn": "iso:organization:1511",
        "targetType": "ORGANIZATION",
        " displayName": "obfuscatedForSample"
      },
      "metadata": {
        "ballotTypes": [
          "CIB",
          "SR"
        ],
        "relationCapacities": {
          "relationCapacity": []
        }
      },
      "creationTimestamp": "2016-10-28T04:05:25.000+02:00"
    },
    {
      "urn": "iso:role:6316738",
      "key": "DMO_CP",
      "status": "APPOINTED",
      "from": {
        "urn": "iso:committee:45986",
        "targetType": "COMMITTEE",
        " displayName": "obfuscatedForSample"
      },
      "to": {
        "urn": "iso:person:4417687",
        "targetType": "PERSON",
        " displayName": "obfuscatedForSample"
      },
      "appointedBy": {
        "urn": "iso:organization:1511",
        "targetType": "ORGANIZATION",
        " displayName": "obfuscatedForSample"
      },
      "metadata": {
        "ballotTypes": [],
        "relationCapacities": {
          "relationCapacity": []
        }
      },
      "creationTimestamp": "2016-10-28T04:05:27.000+02:00"
    },
    {
      "urn": "iso:role:6321990",
      "key": "TPM_CP",
      "status": "APPOINTED",
      "from": {
        "urn": "iso:committee:45986",
        "targetType": "COMMITTEE",
        " displayName": "obfuscatedForSample"
      },
      "to": {
        "urn": "iso:person:320136",
        "targetType": "PERSON",
        " displayName": "obfuscatedForSample"
      },
      "appointedBy": {
        "urn": "iso:organization:68",
        "targetType": "ORGANIZATION",
        " displayName": "obfuscatedForSample"
      },
      "metadata": {
        "ballotTypes": [],
        "relationCapacities": {
          "relationCapacity": []
        }
      },
      "creationTimestamp": "2016-11-01T15:50:23.000+01:00"
    },
    {
      "urn": "iso:role:6339498",
      "key": "BAL_CP",
      "status": "APPOINTED",
      "from": {
        "urn": "iso:committee:45986",
        "targetType": "COMMITTEE",
        " displayName": "obfuscatedForSample"
      },
      "to": {
        "urn": "iso:person:6267969",
        "targetType": "PERSON",
        " displayName": "obfuscatedForSample"
      },
      "appointedBy": {
        "urn": "iso:organization:2106",
        "targetType": "ORGANIZATION",
        " displayName": "obfuscatedForSample"
      },
      "metadata": {
        "ballotTypes": [
          "FDIS",
          "DIS",
          "CIB",
          "SR"
        ],
        "relationCapacities": {
          "relationCapacity": []
        }
      },
      "creationTimestamp": "2016-11-17T14:29:35.000+01:00"
    },
    {
      "urn": "iso:role:6339645",
      "key": "MBR_CP",
      "status": "APPOINTED",
      "from": {
        "urn": "iso:committee:45986",
        "targetType": "COMMITTEE",
        " displayName": "obfuscatedForSample"
      },
      "to": {
        "urn": "iso:person:6267969",
        "targetType": "PERSON",
        " displayName": "obfuscatedForSample"
      },
      "appointedBy": {
        "urn": "iso:organization:2106",
        "targetType": "ORGANIZATION",
        " displayName": "obfuscatedForSample"
      },
      "metadata": {
        "ballotTypes": [],
        "relationCapacities": {
          "relationCapacity": []
        }
      },
      "creationTimestamp": "2016-11-17T15:07:58.000+01:00"
    },
    {
      "urn": "iso:role:6354221",
      "key": "BAL_CP",
      "status": "APPOINTED",
      "from": {
        "urn": "iso:committee:45986",
        "targetType": "COMMITTEE",
        " displayName": "obfuscatedForSample"
      },
      "to": {
        "urn": "iso:person:654329",
        "targetType": "PERSON",
        " displayName": "obfuscatedForSample"
      },
      "appointedBy": {
        "urn": "iso:organization:1823",
        "targetType": "ORGANIZATION",
        " displayName": "obfuscatedForSample"
      },
      "metadata": {
        "ballotTypes": [
          "FDIS",
          "DIS",
          "CIB",
          "SR"
        ],
        "relationCapacities": {
          "relationCapacity": []
        }
      },
      "creationTimestamp": "2016-12-01T15:33:47.000+01:00"
    },
    {
      "urn": "iso:role:6369865",
      "key": "DMO_CP",
      "status": "APPOINTED",
      "from": {
        "urn": "iso:committee:45986",
        "targetType": "COMMITTEE",
        " displayName": "obfuscatedForSample"
      },
      "to": {
        "urn": "iso:person:5170120",
        "targetType": "PERSON",
        " displayName": "obfuscatedForSample"
      },
      "appointedBy": {
        "urn": "iso:organization:1667",
        "targetType": "ORGANIZATION",
        " displayName": "obfuscatedForSample"
      },
      "metadata": {
        "ballotTypes": [],
        "relationCapacities": {
          "relationCapacity": []
        }
      },
      "creationTimestamp": "2016-12-19T16:53:14.000+01:00"
    },
    {
      "urn": "iso:role:6369921",
      "key": "MBR_CP",
      "status": "APPOINTED",
      "from": {
        "urn": "iso:committee:45986",
        "targetType": "COMMITTEE",
        " displayName": "obfuscatedForSample"
      },
      "to": {
        "urn": "iso:person:308372",
        "targetType": "PERSON",
        " displayName": "obfuscatedForSample"
      },
      "appointedBy": {
        "urn": "iso:organization:1667",
        "targetType": "ORGANIZATION",
        " displayName": "obfuscatedForSample"
      },
      "metadata": {
        "ballotTypes": [],
        "relationCapacities": {
          "relationCapacity": []
        }
      },
      "creationTimestamp": "2016-12-19T20:21:11.000+01:00"
    },
    {
      "urn": "iso:role:6388652",
      "key": "MBR_CP",
      "status": "APPOINTED",
      "from": {
        "urn": "iso:committee:45986",
        "targetType": "COMMITTEE",
        " displayName": "obfuscatedForSample"
      },
      "to": {
        "urn": "iso:person:6388647",
        "targetType": "PERSON",
        " displayName": "obfuscatedForSample"
      },
      "appointedBy": {
        "urn": "iso:organization:1657",
        "targetType": "ORGANIZATION",
        " displayName": "obfuscatedForSample"
      },
      "metadata": {
        "ballotTypes": [],
        "relationCapacities": {
          "relationCapacity": []
        }
      },
      "creationTimestamp": "2017-01-08T09:27:50.000+01:00"
    },
    {
      "urn": "iso:role:6425878",
      "key": "BAL_CP",
      "status": "APPOINTED",
      "from": {
        "urn": "iso:committee:45986",
        "targetType": "COMMITTEE",
        " displayName": "obfuscatedForSample"
      },
      "to": {
        "urn": "iso:person:6425870",
        "targetType": "PERSON",
        " displayName": "obfuscatedForSample"
      },
      "appointedBy": {
        "urn": "iso:organization:1835",
        "targetType": "ORGANIZATION",
        " displayName": "obfuscatedForSample"
      },
      "metadata": {
        "ballotTypes": [
          "FDIS",
          "DIS",
          "CIB",
          "SR"
        ],
        "relationCapacities": {
          "relationCapacity": []
        }
      },
      "creationTimestamp": "2017-02-07T05:17:18.000+01:00"
    },
    {
      "urn": "iso:role:6433660",
      "key": "BAL_CP",
      "status": "APPOINTED",
      "from": {
        "urn": "iso:committee:45986",
        "targetType": "COMMITTEE",
        " displayName": "obfuscatedForSample"
      },
      "to": {
        "urn": "iso:person:619930",
        "targetType": "PERSON",
        " displayName": "obfuscatedForSample"
      },
      "appointedBy": {
        "urn": "iso:organization:1511",
        "targetType": "ORGANIZATION",
        " displayName": "obfuscatedForSample"
      },
      "metadata": {
        "ballotTypes": [
          "CIB",
          "SR"
        ],
        "relationCapacities": {
          "relationCapacity": []
        }
      },
      "creationTimestamp": "2017-02-14T04:12:46.000+01:00"
    },
    {
      "urn": "iso:role:6433664",
      "key": "DMO_CP",
      "status": "APPOINTED",
      "from": {
        "urn": "iso:committee:45986",
        "targetType": "COMMITTEE",
        " displayName": "obfuscatedForSample"
      },
      "to": {
        "urn": "iso:person:619930",
        "targetType": "PERSON",
        " displayName": "obfuscatedForSample"
      },
      "appointedBy": {
        "urn": "iso:organization:1511",
        "targetType": "ORGANIZATION",
        " displayName": "obfuscatedForSample"
      },
      "metadata": {
        "ballotTypes": [],
        "relationCapacities": {
          "relationCapacity": []
        }
      },
      "creationTimestamp": "2017-02-14T04:18:41.000+01:00"
    },
    {
      "urn": "iso:role:6433677",
      "key": "BMO_CP",
      "status": "APPOINTED",
      "from": {
        "urn": "iso:committee:45986",
        "targetType": "COMMITTEE",
        " displayName": "obfuscatedForSample"
      },
      "to": {
        "urn": "iso:person:619930",
        "targetType": "PERSON",
        " displayName": "obfuscatedForSample"
      },
      "appointedBy": {
        "urn": "iso:organization:1511",
        "targetType": "ORGANIZATION",
        " displayName": "obfuscatedForSample"
      },
      "metadata": {
        "ballotTypes": [
          "FDIS",
          "DIS"
        ],
        "relationCapacities": {
          "relationCapacity": []
        }
      },
      "creationTimestamp": "2017-02-14T04:24:17.000+01:00"
    },
    {
      "urn": "iso:role:6454361",
      "key": "REP_LIA_I_CP",
      "status": "APPOINTED",
      "from": {
        "urn": "iso:committee:45986",
        "targetType": "COMMITTEE",
        " displayName": "obfuscatedForSample"
      },
      "to": {
        "urn": "iso:person:531178",
        "targetType": "PERSON",
        " displayName": "obfuscatedForSample"
      },
      "appointedBy": {
        "urn": "iso:committee:54924",
        "targetType": "COMMITTEE",
        " displayName": "obfuscatedForSample"
      },
      "metadata": {
        "ballotTypes": [],
        "resolution": "Res 1369",
        "relationCapacities": {
          "relationCapacity": []
        }
      },
      "creationTimestamp": "2017-03-01T15:45:08.000+01:00"
    },
    {
      "urn": "iso:role:6455162",
      "key": "MBR_CP",
      "status": "APPOINTED",
      "from": {
        "urn": "iso:committee:45986",
        "targetType": "COMMITTEE",
        " displayName": "obfuscatedForSample"
      },
      "to": {
        "urn": "iso:person:6115399",
        "targetType": "PERSON",
        " displayName": "obfuscatedForSample"
      },
      "appointedBy": {
        "urn": "iso:organization:1663",
        "targetType": "ORGANIZATION",
        " displayName": "obfuscatedForSample"
      },
      "metadata": {
        "ballotTypes": [],
        "relationCapacities": {
          "relationCapacity": []
        }
      },
      "creationTimestamp": "2017-03-02T09:28:35.000+01:00"
    },
    {
      "urn": "iso:role:6468158",
      "key": "BAL_CP",
      "status": "APPOINTED",
      "from": {
        "urn": "iso:committee:45986",
        "targetType": "COMMITTEE",
        " displayName": "obfuscatedForSample"
      },
      "to": {
        "urn": "iso:person:4665367",
        "targetType": "PERSON",
        " displayName": "obfuscatedForSample"
      },
      "appointedBy": {
        "urn": "iso:organization:1897",
        "targetType": "ORGANIZATION",
        " displayName": "obfuscatedForSample"
      },
      "metadata": {
        "ballotTypes": [
          "FDIS",
          "DIS",
          "CIB",
          "SR"
        ],
        "relationCapacities": {
          "relationCapacity": []
        }
      },
      "creationTimestamp": "2017-03-10T17:45:50.000+01:00"
    },
    {
      "urn": "iso:role:6468162",
      "key": "BMO_CP",
      "status": "APPOINTED",
      "from": {
        "urn": "iso:committee:45986",
        "targetType": "COMMITTEE",
        " displayName": "obfuscatedForSample"
      },
      "to": {
        "urn": "iso:person:4665367",
        "targetType": "PERSON",
        " displayName": "obfuscatedForSample"
      },
      "appointedBy": {
        "urn": "iso:organization:1897",
        "targetType": "ORGANIZATION",
        " displayName": "obfuscatedForSample"
      },
      "metadata": {
        "ballotTypes": [
          "FDIS",
          "DIS",
          "CIB",
          "SR"
        ],
        "relationCapacities": {
          "relationCapacity": []
        }
      },
      "creationTimestamp": "2017-03-10T17:45:52.000+01:00"
    },
    {
      "urn": "iso:role:6468180",
      "key": "MBR_CP",
      "status": "APPOINTED",
      "from": {
        "urn": "iso:committee:45986",
        "targetType": "COMMITTEE",
        " displayName": "obfuscatedForSample"
      },
      "to": {
        "urn": "iso:person:4665367",
        "targetType": "PERSON",
        " displayName": "obfuscatedForSample"
      },
      "appointedBy": {
        "urn": "iso:organization:1897",
        "targetType": "ORGANIZATION",
        " displayName": "obfuscatedForSample"
      },
      "metadata": {
        "ballotTypes": [],
        "relationCapacities": {
          "relationCapacity": []
        }
      },
      "creationTimestamp": "2017-03-10T17:46:11.000+01:00"
    },
    {
      "urn": "iso:role:6473816",
      "key": "MPA_CP",
      "status": "APPOINTED",
      "from": {
        "urn": "iso:committee:45986",
        "targetType": "COMMITTEE",
        " displayName": "obfuscatedForSample"
      },
      "to": {
        "urn": "iso:person:538707",
        "targetType": "PERSON",
        " displayName": "obfuscatedForSample"
      },
      "appointedBy": {
        "urn": "iso:organization:1561",
        "targetType": "ORGANIZATION",
        " displayName": "obfuscatedForSample"
      },
      "metadata": {
        "ballotTypes": [],
        "relationCapacities": {
          "relationCapacity": []
        }
      },
      "creationTimestamp": "2017-03-15T09:28:31.000+01:00"
    },
    {
      "urn": "iso:role:6506600",
      "key": "MPA_CP",
      "status": "APPOINTED",
      "from": {
        "urn": "iso:committee:45986",
        "targetType": "COMMITTEE",
        " displayName": "obfuscatedForSample"
      },
      "to": {
        "urn": "iso:person:570804",
        "targetType": "PERSON",
        " displayName": "obfuscatedForSample"
      },
      "appointedBy": {
        "urn": "iso:organization:1485",
        "targetType": "ORGANIZATION",
        " displayName": "obfuscatedForSample"
      },
      "metadata": {
        "ballotTypes": [],
        "relationCapacities": {
          "relationCapacity": []
        }
      },
      "creationTimestamp": "2017-04-06T08:29:09.000+02:00"
    },
    {
      "urn": "iso:role:6523861",
      "key": "CM_S_CP",
      "status": "APPOINTED",
      "from": {
        "urn": "iso:committee:45986",
        "targetType": "COMMITTEE",
        " displayName": "obfuscatedForSample"
      },
      "to": {
        "urn": "iso:person:21666",
        "targetType": "PERSON",
        " displayName": "obfuscatedForSample"
      },
      "appointedBy": {
        "urn": "iso:organization:2101",
        "targetType": "ORGANIZATION",
        " displayName": "obfuscatedForSample"
      },
      "metadata": {
        "ballotTypes": [],
        "relationCapacities": {
          "relationCapacity": []
        }
      },
      "creationTimestamp": "2017-04-20T16:49:47.000+02:00"
    },
    {
      "urn": "iso:role:6530732",
      "key": "CM_S_CP",
      "status": "APPOINTED",
      "from": {
        "urn": "iso:committee:45986",
        "targetType": "COMMITTEE",
        " displayName": "obfuscatedForSample"
      },
      "to": {
        "urn": "iso:person:5921668",
        "targetType": "PERSON",
        " displayName": "obfuscatedForSample"
      },
      "appointedBy": {
        "urn": "iso:organization:2101",
        "targetType": "ORGANIZATION",
        " displayName": "obfuscatedForSample"
      },
      "metadata": {
        "ballotTypes": [],
        "relationCapacities": {
          "relationCapacity": []
        }
      },
      "creationTimestamp": "2017-04-24T15:45:21.000+02:00"
    },
    {
      "urn": "iso:role:6532218",
      "key": "MBR_CP",
      "status": "APPOINTED",
      "from": {
        "urn": "iso:committee:45986",
        "targetType": "COMMITTEE",
        " displayName": "obfuscatedForSample"
      },
      "to": {
        "urn": "iso:person:5170120",
        "targetType": "PERSON",
        " displayName": "obfuscatedForSample"
      },
      "appointedBy": {
        "urn": "iso:organization:1667",
        "targetType": "ORGANIZATION",
        " displayName": "obfuscatedForSample"
      },
      "metadata": {
        "ballotTypes": [],
        "relationCapacities": {
          "relationCapacity": []
        }
      },
      "creationTimestamp": "2017-04-26T00:54:15.000+02:00"
    },
    {
      "urn": "iso:role:6532221",
      "key": "BMO_CP",
      "status": "APPOINTED",
      "from": {
        "urn": "iso:committee:45986",
        "targetType": "COMMITTEE",
        " displayName": "obfuscatedForSample"
      },
      "to": {
        "urn": "iso:person:5170120",
        "targetType": "PERSON",
        " displayName": "obfuscatedForSample"
      },
      "appointedBy": {
        "urn": "iso:organization:1667",
        "targetType": "ORGANIZATION",
        " displayName": "obfuscatedForSample"
      },
      "metadata": {
        "ballotTypes": [
          "FDIS",
          "DIS",
          "CIB",
          "SR"
        ],
        "relationCapacities": {
          "relationCapacity": []
        }
      },
      "creationTimestamp": "2017-04-26T00:56:13.000+02:00"
    },
    {
      "urn": "iso:role:6532638",
      "key": "MBR_CP",
      "status": "APPOINTED",
      "from": {
        "urn": "iso:committee:45986",
        "targetType": "COMMITTEE",
        " displayName": "obfuscatedForSample"
      },
      "to": {
        "urn": "iso:person:534774",
        "targetType": "PERSON",
        " displayName": "obfuscatedForSample"
      },
      "appointedBy": {
        "urn": "iso:organization:2101",
        "targetType": "ORGANIZATION",
        " displayName": "obfuscatedForSample"
      },
      "metadata": {
        "ballotTypes": [],
        "relationCapacities": {
          "relationCapacity": []
        }
      },
      "creationTimestamp": "2017-04-26T09:56:42.000+02:00"
    },
    {
      "urn": "iso:role:6557310",
      "key": "MPA_CP",
      "status": "APPOINTED",
      "from": {
        "urn": "iso:committee:45986",
        "targetType": "COMMITTEE",
        " displayName": "obfuscatedForSample"
      },
      "to": {
        "urn": "iso:person:510526",
        "targetType": "PERSON",
        " displayName": "obfuscatedForSample"
      },
      "appointedBy": {
        "urn": "iso:organization:1717",
        "targetType": "ORGANIZATION",
        " displayName": "obfuscatedForSample"
      },
      "metadata": {
        "ballotTypes": [],
        "relationCapacities": {
          "relationCapacity": []
        }
      },
      "creationTimestamp": "2017-05-17T11:45:43.000+02:00"
    },
    {
      "urn": "iso:role:6559355",
      "key": "BMO_CP",
      "status": "APPOINTED",
      "from": {
        "urn": "iso:committee:45986",
        "targetType": "COMMITTEE",
        " displayName": "obfuscatedForSample"
      },
      "to": {
        "urn": "iso:person:5128472",
        "targetType": "PERSON",
        " displayName": "obfuscatedForSample"
      },
      "appointedBy": {
        "urn": "iso:organization:1680",
        "targetType": "ORGANIZATION",
        " displayName": "obfuscatedForSample"
      },
      "metadata": {
        "ballotTypes": [
          "FDIS",
          "DIS",
          "CIB",
          "SR"
        ],
        "relationCapacities": {
          "relationCapacity": []
        }
      },
      "creationTimestamp": "2017-05-18T12:45:40.000+02:00"
    },
    {
      "urn": "iso:role:6574299",
      "key": "CHP_CP",
      "status": "APPOINTED",
      "from": {
        "urn": "iso:committee:45986",
        "targetType": "COMMITTEE",
        " displayName": "obfuscatedForSample"
      },
      "to": {
        "urn": "iso:person:5921668",
        "targetType": "PERSON",
        " displayName": "obfuscatedForSample"
      },
      "appointedBy": {
        "urn": "iso:organization:2101",
        "targetType": "ORGANIZATION",
        " displayName": "obfuscatedForSample"
      },
      "metadata": {
        "ballotTypes": [],
        "resolution": "TMB Resolution 70/2017 (2017-2022)",
        "relationCapacities": {
          "relationCapacity": []
        },
        "startDate": "2017-01-01",
        "endDate": "2022-12-31"
      },
      "creationTimestamp": "2017-05-29T10:46:16.000+02:00"
    },
    {
      "urn": "iso:role:6576721",
      "key": "MBR_CP",
      "status": "APPOINTED",
      "from": {
        "urn": "iso:committee:45986",
        "targetType": "COMMITTEE",
        " displayName": "obfuscatedForSample"
      },
      "to": {
        "urn": "iso:person:6576703",
        "targetType": "PERSON",
        " displayName": "obfuscatedForSample"
      },
      "appointedBy": {
        "urn": "iso:organization:2176",
        "targetType": "ORGANIZATION",
        " displayName": "obfuscatedForSample"
      },
      "metadata": {
        "ballotTypes": [],
        "relationCapacities": {
          "relationCapacity": []
        }
      },
      "creationTimestamp": "2017-05-31T11:02:41.000+02:00"
    },
    {
      "urn": "iso:role:6576722",
      "key": "BAL_CP",
      "status": "APPOINTED",
      "from": {
        "urn": "iso:committee:45986",
        "targetType": "COMMITTEE",
        " displayName": "obfuscatedForSample"
      },
      "to": {
        "urn": "iso:person:6576703",
        "targetType": "PERSON",
        " displayName": "obfuscatedForSample"
      },
      "appointedBy": {
        "urn": "iso:organization:2176",
        "targetType": "ORGANIZATION",
        " displayName": "obfuscatedForSample"
      },
      "metadata": {
        "ballotTypes": [
          "CIB"
        ],
        "relationCapacities": {
          "relationCapacity": []
        }
      },
      "creationTimestamp": "2017-05-31T11:02:55.000+02:00"
    },
    {
      "urn": "iso:role:6612814",
      "key": "MPA_CP",
      "status": "APPOINTED",
      "from": {
        "urn": "iso:committee:45986",
        "targetType": "COMMITTEE",
        " displayName": "obfuscatedForSample"
      },
      "to": {
        "urn": "iso:person:541020",
        "targetType": "PERSON",
        " displayName": "obfuscatedForSample"
      },
      "appointedBy": {
        "urn": "iso:organization:2064",
        "targetType": "ORGANIZATION",
        " displayName": "obfuscatedForSample"
      },
      "metadata": {
        "ballotTypes": [],
        "relationCapacities": {
          "relationCapacity": []
        }
      },
      "creationTimestamp": "2017-06-29T13:52:57.000+02:00"
    },
    {
      "urn": "iso:role:6621045",
      "key": "MBR_CP",
      "status": "APPOINTED",
      "from": {
        "urn": "iso:committee:45986",
        "targetType": "COMMITTEE",
        " displayName": "obfuscatedForSample"
      },
      "to": {
        "urn": "iso:person:6425870",
        "targetType": "PERSON",
        " displayName": "obfuscatedForSample"
      },
      "appointedBy": {
        "urn": "iso:organization:1835",
        "targetType": "ORGANIZATION",
        " displayName": "obfuscatedForSample"
      },
      "metadata": {
        "ballotTypes": [],
        "relationCapacities": {
          "relationCapacity": []
        }
      },
      "creationTimestamp": "2017-07-06T09:40:18.000+02:00"
    },
    {
      "urn": "iso:role:6626653",
      "key": "BAL_CP",
      "status": "APPOINTED",
      "from": {
        "urn": "iso:committee:45986",
        "targetType": "COMMITTEE",
        " displayName": "obfuscatedForSample"
      },
      "to": {
        "urn": "iso:person:513309",
        "targetType": "PERSON",
        " displayName": "obfuscatedForSample"
      },
      "appointedBy": {
        "urn": "iso:organization:1511",
        "targetType": "ORGANIZATION",
        " displayName": "obfuscatedForSample"
      },
      "metadata": {
        "ballotTypes": [
          "CIB"
        ],
        "relationCapacities": {
          "relationCapacity": []
        }
      },
      "creationTimestamp": "2017-07-11T02:15:45.000+02:00"
    },
    {
      "urn": "iso:role:6626654",
      "key": "DMO_CP",
      "status": "APPOINTED",
      "from": {
        "urn": "iso:committee:45986",
        "targetType": "COMMITTEE",
        " displayName": "obfuscatedForSample"
      },
      "to": {
        "urn": "iso:person:513309",
        "targetType": "PERSON",
        " displayName": "obfuscatedForSample"
      },
      "appointedBy": {
        "urn": "iso:organization:1511",
        "targetType": "ORGANIZATION",
        " displayName": "obfuscatedForSample"
      },
      "metadata": {
        "ballotTypes": [],
        "relationCapacities": {
          "relationCapacity": []
        }
      },
      "creationTimestamp": "2017-07-11T02:16:40.000+02:00"
    },
    {
      "urn": "iso:role:6637131",
      "key": "MBR_CP",
      "status": "APPOINTED",
      "from": {
        "urn": "iso:committee:45986",
        "targetType": "COMMITTEE",
        " displayName": "obfuscatedForSample"
      },
      "to": {
        "urn": "iso:person:4668165",
        "targetType": "PERSON",
        " displayName": "obfuscatedForSample"
      },
      "appointedBy": {
        "urn": "iso:organization:2054",
        "targetType": "ORGANIZATION",
        " displayName": "obfuscatedForSample"
      },
      "metadata": {
        "ballotTypes": [],
        "relationCapacities": {
          "relationCapacity": []
        }
      },
      "creationTimestamp": "2017-07-19T11:55:17.000+02:00"
    },
    {
      "urn": "iso:role:6655823",
      "key": "MPA_CP",
      "status": "APPOINTED",
      "from": {
        "urn": "iso:committee:45986",
        "targetType": "COMMITTEE",
        " displayName": "obfuscatedForSample"
      },
      "to": {
        "urn": "iso:person:5872402",
        "targetType": "PERSON",
        " displayName": "obfuscatedForSample"
      },
      "appointedBy": {
        "urn": "iso:organization:1738",
        "targetType": "ORGANIZATION",
        " displayName": "obfuscatedForSample"
      },
      "metadata": {
        "ballotTypes": [],
        "relationCapacities": {
          "relationCapacity": []
        }
      },
      "creationTimestamp": "2017-08-07T10:12:59.000+02:00"
    },
    {
      "urn": "iso:role:6693971",
      "key": "CM_CP",
      "status": "APPOINTED",
      "from": {
        "urn": "iso:committee:45986",
        "targetType": "COMMITTEE",
        " displayName": "obfuscatedForSample"
      },
      "to": {
        "urn": "iso:person:21666",
        "targetType": "PERSON",
        " displayName": "obfuscatedForSample"
      },
      "appointedBy": {
        "urn": "iso:organization:2101",
        "targetType": "ORGANIZATION",
        " displayName": "obfuscatedForSample"
      },
      "metadata": {
        "ballotTypes": [],
        "relationCapacities": {
          "relationCapacity": []
        }
      },
      "creationTimestamp": "2017-08-28T10:57:19.000+02:00"
    },
    {
      "urn": "iso:role:6728114",
      "key": "MPA_CP",
      "status": "APPOINTED",
      "from": {
        "urn": "iso:committee:45986",
        "targetType": "COMMITTEE",
        " displayName": "obfuscatedForSample"
      },
      "to": {
        "urn": "iso:person:534774",
        "targetType": "PERSON",
        " displayName": "obfuscatedForSample"
      },
      "appointedBy": {
        "urn": "iso:organization:2101",
        "targetType": "ORGANIZATION",
        " displayName": "obfuscatedForSample"
      },
      "metadata": {
        "ballotTypes": [],
        "relationCapacities": {
          "relationCapacity": []
        }
      },
      "creationTimestamp": "2017-09-27T10:01:26.000+02:00"
    },
    {
      "urn": "iso:role:6728977",
      "key": "MPA_CP",
      "status": "APPOINTED",
      "from": {
        "urn": "iso:committee:45986",
        "targetType": "COMMITTEE",
        " displayName": "obfuscatedForSample"
      },
      "to": {
        "urn": "iso:person:21666",
        "targetType": "PERSON",
        " displayName": "obfuscatedForSample"
      },
      "appointedBy": {
        "urn": "iso:organization:2101",
        "targetType": "ORGANIZATION",
        " displayName": "obfuscatedForSample"
      },
      "metadata": {
        "ballotTypes": [],
        "relationCapacities": {
          "relationCapacity": []
        }
      },
      "creationTimestamp": "2017-09-27T10:32:04.000+02:00"
    },
    {
      "urn": "iso:role:6756338",
      "key": "BAL_CP",
      "status": "APPOINTED",
      "from": {
        "urn": "iso:committee:45986",
        "targetType": "COMMITTEE",
        " displayName": "obfuscatedForSample"
      },
      "to": {
        "urn": "iso:person:5131431",
        "targetType": "PERSON",
        " displayName": "obfuscatedForSample"
      },
      "appointedBy": {
        "urn": "iso:organization:1784",
        "targetType": "ORGANIZATION",
        " displayName": "obfuscatedForSample"
      },
      "metadata": {
        "ballotTypes": [
          "FDIS",
          "DIS",
          "CIB",
          "SR"
        ],
        "relationCapacities": {
          "relationCapacity": []
        }
      },
      "creationTimestamp": "2017-10-18T16:33:23.000+02:00"
    },
    {
      "urn": "iso:role:6780397",
      "key": "MBR_CP",
      "status": "APPOINTED",
      "from": {
        "urn": "iso:committee:45986",
        "targetType": "COMMITTEE",
        " displayName": "obfuscatedForSample"
      },
      "to": {
        "urn": "iso:person:5131431",
        "targetType": "PERSON",
        " displayName": "obfuscatedForSample"
      },
      "appointedBy": {
        "urn": "iso:organization:1784",
        "targetType": "ORGANIZATION",
        " displayName": "obfuscatedForSample"
      },
      "metadata": {
        "ballotTypes": [],
        "relationCapacities": {
          "relationCapacity": []
        }
      },
      "creationTimestamp": "2017-11-08T15:46:12.000+01:00"
    },
    {
      "urn": "iso:role:6782325",
      "key": "MBR_CP",
      "status": "APPOINTED",
      "from": {
        "urn": "iso:committee:45986",
        "targetType": "COMMITTEE",
        " displayName": "obfuscatedForSample"
      },
      "to": {
        "urn": "iso:person:6707255",
        "targetType": "PERSON",
        " displayName": "obfuscatedForSample"
      },
      "appointedBy": {
        "urn": "iso:organization:1667",
        "targetType": "ORGANIZATION",
        " displayName": "obfuscatedForSample"
      },
      "metadata": {
        "ballotTypes": [],
        "relationCapacities": {
          "relationCapacity": []
        }
      },
      "creationTimestamp": "2017-11-10T15:39:32.000+01:00"
    },
    {
      "urn": "iso:role:6782328",
      "key": "BAL_CP",
      "status": "APPOINTED",
      "from": {
        "urn": "iso:committee:45986",
        "targetType": "COMMITTEE",
        " displayName": "obfuscatedForSample"
      },
      "to": {
        "urn": "iso:person:6707255",
        "targetType": "PERSON",
        " displayName": "obfuscatedForSample"
      },
      "appointedBy": {
        "urn": "iso:organization:1667",
        "targetType": "ORGANIZATION",
        " displayName": "obfuscatedForSample"
      },
      "metadata": {
        "ballotTypes": [
          "FDIS",
          "DIS",
          "CIB",
          "SR"
        ],
        "relationCapacities": {
          "relationCapacity": []
        }
      },
      "creationTimestamp": "2017-11-10T15:40:50.000+01:00"
    },
    {
      "urn": "iso:role:6782331",
      "key": "BMO_CP",
      "status": "APPOINTED",
      "from": {
        "urn": "iso:committee:45986",
        "targetType": "COMMITTEE",
        " displayName": "obfuscatedForSample"
      },
      "to": {
        "urn": "iso:person:6707255",
        "targetType": "PERSON",
        " displayName": "obfuscatedForSample"
      },
      "appointedBy": {
        "urn": "iso:organization:1667",
        "targetType": "ORGANIZATION",
        " displayName": "obfuscatedForSample"
      },
      "metadata": {
        "ballotTypes": [
          "FDIS",
          "DIS",
          "CIB",
          "SR"
        ],
        "relationCapacities": {
          "relationCapacity": []
        }
      },
      "creationTimestamp": "2017-11-10T15:41:55.000+01:00"
    },
    {
      "urn": "iso:role:6840182",
      "key": "BMO_CP",
      "status": "APPOINTED",
      "from": {
        "urn": "iso:committee:45986",
        "targetType": "COMMITTEE",
        " displayName": "obfuscatedForSample"
      },
      "to": {
        "urn": "iso:person:6831216",
        "targetType": "PERSON",
        " displayName": "obfuscatedForSample"
      },
      "appointedBy": {
        "urn": "iso:organization:1738",
        "targetType": "ORGANIZATION",
        " displayName": "obfuscatedForSample"
      },
      "metadata": {
        "ballotTypes": [
          "FDIS",
          "DIS",
          "SR"
        ],
        "relationCapacities": {
          "relationCapacity": []
        }
      },
      "creationTimestamp": "2018-01-03T10:09:41.000+01:00"
    },
    {
      "urn": "iso:role:6856260",
      "key": "MBR_CP",
      "status": "APPOINTED",
      "from": {
        "urn": "iso:committee:45986",
        "targetType": "COMMITTEE",
        " displayName": "obfuscatedForSample"
      },
      "to": {
        "urn": "iso:person:5545403",
        "targetType": "PERSON",
        " displayName": "obfuscatedForSample"
      },
      "appointedBy": {
        "urn": "iso:organization:1738",
        "targetType": "ORGANIZATION",
        " displayName": "obfuscatedForSample"
      },
      "metadata": {
        "ballotTypes": [],
        "relationCapacities": {
          "relationCapacity": []
        }
      },
      "creationTimestamp": "2018-01-15T10:21:12.000+01:00"
    },
    {
      "urn": "iso:role:6859608",
      "key": "BAL_CP",
      "status": "APPOINTED",
      "from": {
        "urn": "iso:committee:45986",
        "targetType": "COMMITTEE",
        " displayName": "obfuscatedForSample"
      },
      "to": {
        "urn": "iso:person:5545403",
        "targetType": "PERSON",
        " displayName": "obfuscatedForSample"
      },
      "appointedBy": {
        "urn": "iso:organization:1738",
        "targetType": "ORGANIZATION",
        " displayName": "obfuscatedForSample"
      },
      "metadata": {
        "ballotTypes": [
          "FDIS",
          "DIS",
          "CIB",
          "SR"
        ],
        "relationCapacities": {
          "relationCapacity": []
        }
      },
      "creationTimestamp": "2018-01-17T11:42:41.000+01:00"
    },
    {
      "urn": "iso:role:6861490",
      "key": "MPA_CP",
      "status": "APPOINTED",
      "from": {
        "urn": "iso:committee:45986",
        "targetType": "COMMITTEE",
        " displayName": "obfuscatedForSample"
      },
      "to": {
        "urn": "iso:person:5545403",
        "targetType": "PERSON",
        " displayName": "obfuscatedForSample"
      },
      "appointedBy": {
        "urn": "iso:organization:1738",
        "targetType": "ORGANIZATION",
        " displayName": "obfuscatedForSample"
      },
      "metadata": {
        "ballotTypes": [],
        "relationCapacities": {
          "relationCapacity": []
        }
      },
      "creationTimestamp": "2018-01-18T16:41:36.000+01:00"
    },
    {
      "urn": "iso:role:6901225",
      "key": "MBR_CP",
      "status": "APPOINTED",
      "from": {
        "urn": "iso:committee:45986",
        "targetType": "COMMITTEE",
        " displayName": "obfuscatedForSample"
      },
      "to": {
        "urn": "iso:person:660010",
        "targetType": "PERSON",
        " displayName": "obfuscatedForSample"
      },
      "appointedBy": {
        "urn": "iso:organization:1597",
        "targetType": "ORGANIZATION",
        " displayName": "obfuscatedForSample"
      },
      "metadata": {
        "ballotTypes": [],
        "relationCapacities": {
          "relationCapacity": []
        }
      },
      "creationTimestamp": "2018-02-20T12:24:49.000+01:00"
    },
    {
      "urn": "iso:role:6901233",
      "key": "BAL_CP",
      "status": "APPOINTED",
      "from": {
        "urn": "iso:committee:45986",
        "targetType": "COMMITTEE",
        " displayName": "obfuscatedForSample"
      },
      "to": {
        "urn": "iso:person:660010",
        "targetType": "PERSON",
        " displayName": "obfuscatedForSample"
      },
      "appointedBy": {
        "urn": "iso:organization:1597",
        "targetType": "ORGANIZATION",
        " displayName": "obfuscatedForSample"
      },
      "metadata": {
        "ballotTypes": [
          "CIB"
        ],
        "relationCapacities": {
          "relationCapacity": []
        }
      },
      "creationTimestamp": "2018-02-20T12:27:02.000+01:00"
    },
    {
      "urn": "iso:role:6909045",
      "key": "MPA_CP",
      "status": "APPOINTED",
      "from": {
        "urn": "iso:committee:45986",
        "targetType": "COMMITTEE",
        " displayName": "obfuscatedForSample"
      },
      "to": {
        "urn": "iso:person:6873341",
        "targetType": "PERSON",
        " displayName": "obfuscatedForSample"
      },
      "appointedBy": {
        "urn": "iso:organization:2176",
        "targetType": "ORGANIZATION",
        " displayName": "obfuscatedForSample"
      },
      "metadata": {
        "ballotTypes": [],
        "relationCapacities": {
          "relationCapacity": []
        }
      },
      "creationTimestamp": "2018-02-27T09:06:44.000+01:00"
    },
    {
      "urn": "iso:role:6951433",
      "key": "CM_S_CP",
      "status": "APPOINTED",
      "from": {
        "urn": "iso:committee:45986",
        "targetType": "COMMITTEE",
        " displayName": "obfuscatedForSample"
      },
      "to": {
        "urn": "iso:person:6643434",
        "targetType": "PERSON",
        " displayName": "obfuscatedForSample"
      },
      "appointedBy": {
        "urn": "iso:organization:2101",
        "targetType": "ORGANIZATION",
        " displayName": "obfuscatedForSample"
      },
      "metadata": {
        "ballotTypes": [],
        "relationCapacities": {
          "relationCapacity": []
        }
      },
      "creationTimestamp": "2018-07-16T15:43:44.000+02:00"
    },
    {
      "urn": "iso:role:6951596",
      "key": "MBR_CP",
      "status": "APPOINTED",
      "from": {
        "urn": "iso:committee:45986",
        "targetType": "COMMITTEE",
        " displayName": "obfuscatedForSample"
      },
      "to": {
        "urn": "iso:person:5833681",
        "targetType": "PERSON",
        " displayName": "obfuscatedForSample"
      },
      "appointedBy": {
        "urn": "iso:organization:4959889",
        "targetType": "ORGANIZATION",
        " displayName": "obfuscatedForSample"
      },
      "metadata": {
        "ballotTypes": [],
        "relationCapacities": {
          "relationCapacity": []
        }
      },
      "creationTimestamp": "2018-08-14T07:51:01.000+02:00"
    },
    {
      "urn": "iso:role:6952615",
      "key": "CM_S_CP",
      "status": "APPOINTED",
      "from": {
        "urn": "iso:committee:45986",
        "targetType": "COMMITTEE",
        " displayName": "obfuscatedForSample"
      },
      "to": {
        "urn": "iso:person:382477",
        "targetType": "PERSON",
        " displayName": "obfuscatedForSample"
      },
      "appointedBy": {
        "urn": "iso:organization:2101",
        "targetType": "ORGANIZATION",
        " displayName": "obfuscatedForSample"
      },
      "metadata": {
        "ballotTypes": [],
        "relationCapacities": {
          "relationCapacity": []
        }
      },
      "creationTimestamp": "2018-09-13T17:45:22.000+02:00"
    },
    {
      "urn": "iso:role:6953196",
      "key": "MBR_CP",
      "status": "APPOINTED",
      "from": {
        "urn": "iso:committee:45986",
        "targetType": "COMMITTEE",
        " displayName": "obfuscatedForSample"
      },
      "to": {
        "urn": "iso:person:640165",
        "targetType": "PERSON",
        " displayName": "obfuscatedForSample"
      },
      "appointedBy": {
        "urn": "iso:organization:2106",
        "targetType": "ORGANIZATION",
        " displayName": "obfuscatedForSample"
      },
      "metadata": {
        "ballotTypes": [],
        "relationCapacities": {
          "relationCapacity": []
        }
      },
      "creationTimestamp": "2018-10-04T13:04:16.000+02:00"
    },
    {
      "urn": "iso:role:6957776",
      "key": "BMO_CP",
      "status": "APPOINTED",
      "from": {
        "urn": "iso:committee:45986",
        "targetType": "COMMITTEE",
        " displayName": "obfuscatedForSample"
      },
      "to": {
        "urn": "iso:person:4417687",
        "targetType": "PERSON",
        " displayName": "obfuscatedForSample"
      },
      "appointedBy": {
        "urn": "iso:organization:1511",
        "targetType": "ORGANIZATION",
        " displayName": "obfuscatedForSample"
      },
      "metadata": {
        "ballotTypes": [
          "FDIS",
          "DIS"
        ],
        "relationCapacities": {
          "relationCapacity": []
        }
      },
      "creationTimestamp": "2019-06-05T13:44:58.000+02:00"
    },
    {
      "urn": "iso:role:6965156",
      "key": "REP_LIA_I_CP",
      "status": "APPOINTED",
      "from": {
        "urn": "iso:committee:45986",
        "targetType": "COMMITTEE",
        " displayName": "obfuscatedForSample"
      },
      "to": {
        "urn": "iso:person:382477",
        "targetType": "PERSON",
        " displayName": "obfuscatedForSample"
      },
      "appointedBy": {
        "urn": "iso:committee:54924",
        "targetType": "COMMITTEE",
        " displayName": "obfuscatedForSample"
      },
      "metadata": {
        "ballotTypes": [],
        "relationCapacities": {
          "relationCapacity": []
        }
      },
      "creationTimestamp": "2020-01-14T11:43:34.000+01:00"
    },
    {
      "urn": "iso:role:6965163",
      "key": "JWG_CC",
      "status": "APPOINTED",
      "from": {
        "urn": "iso:committee:45986",
        "targetType": "COMMITTEE",
        " displayName": "obfuscatedForSample"
      },
      "to": {
        "urn": "iso:committee:4947421",
        "targetType": "COMMITTEE",
        " displayName": "obfuscatedForSample"
      },
      "appointedBy": {
        "urn": "iso:committee:45986",
        "targetType": "COMMITTEE",
        " displayName": "obfuscatedForSample"
      },
      "metadata": {
        "ballotTypes": [],
        "relationCapacities": {
          "relationCapacity": []
        }
      },
      "creationTimestamp": "2020-01-14T13:41:42.000+01:00"
    },
    {
      "urn": "iso:role:3889970",
      "key": "MIRROR_CC",
      "status": "APPOINTED",
      "from": {
        "urn": "iso:committee:556290",
        "targetType": "COMMITTEE",
        " displayName": "obfuscatedForSample"
      },
      "to": {
        "urn": "iso:committee:45986",
        "targetType": "COMMITTEE",
        " displayName": "obfuscatedForSample"
      },
      "appointedBy": {
        "urn": "iso:organization:2172",
        "targetType": "ORGANIZATION",
        " displayName": "obfuscatedForSample"
      },
      "metadata": {
        "ballotTypes": [],
        "relationCapacities": {
          "relationCapacity": [
            "POS_BALLOT"
          ]
        }
      },
      "creationTimestamp": "2001-01-01T02:01:01.000+01:00"
    },
    {
      "urn": "iso:role:3890809",
      "key": "MIRROR_CC",
      "status": "APPOINTED",
      "from": {
        "urn": "iso:committee:633804",
        "targetType": "COMMITTEE",
        " displayName": "obfuscatedForSample"
      },
      "to": {
        "urn": "iso:committee:45986",
        "targetType": "COMMITTEE",
        " displayName": "obfuscatedForSample"
      },
      "appointedBy": {
        "urn": "iso:organization:2101",
        "targetType": "ORGANIZATION",
        " displayName": "obfuscatedForSample"
      },
      "metadata": {
        "ballotTypes": [],
        "relationCapacities": {
          "relationCapacity": []
        }
      },
      "creationTimestamp": "2001-01-01T02:01:01.000+01:00"
    },
    {
      "urn": "iso:role:3891597",
      "key": "MIRROR_CC",
      "status": "APPOINTED",
      "from": {
        "urn": "iso:committee:642193",
        "targetType": "COMMITTEE",
        " displayName": "obfuscatedForSample"
      },
      "to": {
        "urn": "iso:committee:45986",
        "targetType": "COMMITTEE",
        " displayName": "obfuscatedForSample"
      },
      "appointedBy": {
        "urn": "iso:organization:1561",
        "targetType": "ORGANIZATION",
        " displayName": "obfuscatedForSample"
      },
      "metadata": {
        "ballotTypes": [],
        "relationCapacities": {
          "relationCapacity": []
        }
      },
      "creationTimestamp": "2001-01-01T02:01:01.000+01:00"
    },
    {
      "urn": "iso:role:3892039",
      "key": "MIRROR_CC",
      "status": "APPOINTED",
      "from": {
        "urn": "iso:committee:635590",
        "targetType": "COMMITTEE",
        " displayName": "obfuscatedForSample"
      },
      "to": {
        "urn": "iso:committee:45986",
        "targetType": "COMMITTEE",
        " displayName": "obfuscatedForSample"
      },
      "appointedBy": {
        "urn": "iso:organization:1579",
        "targetType": "ORGANIZATION",
        " displayName": "obfuscatedForSample"
      },
      "metadata": {
        "ballotTypes": [],
        "relationCapacities": {
          "relationCapacity": [
            "POS_BALLOT"
          ]
        }
      },
      "creationTimestamp": "2001-01-01T02:01:01.000+01:00"
    },
    {
      "urn": "iso:role:3892557",
      "key": "MIRROR_CC",
      "status": "APPOINTED",
      "from": {
        "urn": "iso:committee:653243",
        "targetType": "COMMITTEE",
        " displayName": "obfuscatedForSample"
      },
      "to": {
        "urn": "iso:committee:45986",
        "targetType": "COMMITTEE",
        " displayName": "obfuscatedForSample"
      },
      "appointedBy": {
        "urn": "iso:organization:1734",
        "targetType": "ORGANIZATION",
        " displayName": "obfuscatedForSample"
      },
      "metadata": {
        "ballotTypes": [],
        "relationCapacities": {
          "relationCapacity": [
            "POS_BALLOT"
          ]
        }
      },
      "creationTimestamp": "2001-01-01T02:01:01.000+01:00"
    },
    {
      "urn": "iso:role:3894282",
      "key": "MIRROR_CC",
      "status": "APPOINTED",
      "from": {
        "urn": "iso:committee:608403",
        "targetType": "COMMITTEE",
        " displayName": "obfuscatedForSample"
      },
      "to": {
        "urn": "iso:committee:45986",
        "targetType": "COMMITTEE",
        " displayName": "obfuscatedForSample"
      },
      "appointedBy": {
        "urn": "iso:organization:2058",
        "targetType": "ORGANIZATION",
        " displayName": "obfuscatedForSample"
      },
      "metadata": {
        "ballotTypes": [],
        "relationCapacities": {
          "relationCapacity": [
            "POS_BALLOT"
          ]
        }
      },
      "creationTimestamp": "2001-01-01T02:01:01.000+01:00"
    },
    {
      "urn": "iso:role:3894371",
      "key": "MIRROR_CC",
      "status": "APPOINTED",
      "from": {
        "urn": "iso:committee:585855",
        "targetType": "COMMITTEE",
        " displayName": "obfuscatedForSample"
      },
      "to": {
        "urn": "iso:committee:45986",
        "targetType": "COMMITTEE",
        " displayName": "obfuscatedForSample"
      },
      "appointedBy": {
        "urn": "iso:organization:1717",
        "targetType": "ORGANIZATION",
        " displayName": "obfuscatedForSample"
      },
      "metadata": {
        "ballotTypes": [],
        "relationCapacities": {
          "relationCapacity": [
            "POS_BALLOT"
          ]
        }
      },
      "creationTimestamp": "2001-01-01T02:01:01.000+01:00"
    },
    {
      "urn": "iso:role:3894576",
      "key": "MIRROR_CC",
      "status": "APPOINTED",
      "from": {
        "urn": "iso:committee:566844",
        "targetType": "COMMITTEE",
        " displayName": "obfuscatedForSample"
      },
      "to": {
        "urn": "iso:committee:45986",
        "targetType": "COMMITTEE",
        " displayName": "obfuscatedForSample"
      },
      "appointedBy": {
        "urn": "iso:organization:2110",
        "targetType": "ORGANIZATION",
        " displayName": "obfuscatedForSample"
      },
      "metadata": {
        "ballotTypes": [],
        "relationCapacities": {
          "relationCapacity": [
            "POS_BALLOT"
          ]
        }
      },
      "creationTimestamp": "2001-01-01T02:01:01.000+01:00"
    },
    {
      "urn": "iso:role:3894825",
      "key": "MIRROR_CC",
      "status": "APPOINTED",
      "from": {
        "urn": "iso:committee:621714",
        "targetType": "COMMITTEE",
        " displayName": "obfuscatedForSample"
      },
      "to": {
        "urn": "iso:committee:45986",
        "targetType": "COMMITTEE",
        " displayName": "obfuscatedForSample"
      },
      "appointedBy": {
        "urn": "iso:organization:2133",
        "targetType": "ORGANIZATION",
        " displayName": "obfuscatedForSample"
      },
      "metadata": {
        "ballotTypes": [],
        "relationCapacities": {
          "relationCapacity": [
            "POS_BALLOT"
          ]
        }
      },
      "creationTimestamp": "2001-01-01T02:01:01.000+01:00"
    },
    {
      "urn": "iso:role:3895529",
      "key": "MIRROR_CC",
      "status": "APPOINTED",
      "from": {
        "urn": "iso:committee:557489",
        "targetType": "COMMITTEE",
        " displayName": "obfuscatedForSample"
      },
      "to": {
        "urn": "iso:committee:45986",
        "targetType": "COMMITTEE",
        " displayName": "obfuscatedForSample"
      },
      "appointedBy": {
        "urn": "iso:organization:1819",
        "targetType": "ORGANIZATION",
        " displayName": "obfuscatedForSample"
      },
      "metadata": {
        "ballotTypes": [],
        "relationCapacities": {
          "relationCapacity": [
            "POS_BALLOT"
          ]
        }
      },
      "creationTimestamp": "2001-01-01T02:01:01.000+01:00"
    },
    {
      "urn": "iso:role:3897527",
      "key": "MIRROR_CC",
      "status": "APPOINTED",
      "from": {
        "urn": "iso:committee:610784",
        "targetType": "COMMITTEE",
        " displayName": "obfuscatedForSample"
      },
      "to": {
        "urn": "iso:committee:45986",
        "targetType": "COMMITTEE",
        " displayName": "obfuscatedForSample"
      },
      "appointedBy": {
        "urn": "iso:organization:1603",
        "targetType": "ORGANIZATION",
        " displayName": "obfuscatedForSample"
      },
      "metadata": {
        "ballotTypes": [],
        "relationCapacities": {
          "relationCapacity": [
            "POS_BALLOT"
          ]
        }
      },
      "creationTimestamp": "2001-01-01T02:01:01.000+01:00"
    },
    {
      "urn": "iso:role:3900562",
      "key": "MIRROR_CC",
      "status": "APPOINTED",
      "from": {
        "urn": "iso:committee:613055",
        "targetType": "COMMITTEE",
        " displayName": "obfuscatedForSample"
      },
      "to": {
        "urn": "iso:committee:45986",
        "targetType": "COMMITTEE",
        " displayName": "obfuscatedForSample"
      },
      "appointedBy": {
        "urn": "iso:organization:2101",
        "targetType": "ORGANIZATION",
        " displayName": "obfuscatedForSample"
      },
      "metadata": {
        "ballotTypes": [],
        "relationCapacities": {
          "relationCapacity": []
        }
      },
      "creationTimestamp": "2001-01-01T02:01:01.000+01:00"
    },
    {
      "urn": "iso:role:3901828",
      "key": "MIRROR_CC",
      "status": "APPOINTED",
      "from": {
        "urn": "iso:committee:559808",
        "targetType": "COMMITTEE",
        " displayName": "obfuscatedForSample"
      },
      "to": {
        "urn": "iso:committee:45986",
        "targetType": "COMMITTEE",
        " displayName": "obfuscatedForSample"
      },
      "appointedBy": {
        "urn": "iso:organization:2139",
        "targetType": "ORGANIZATION",
        " displayName": "obfuscatedForSample"
      },
      "metadata": {
        "ballotTypes": [],
        "relationCapacities": {
          "relationCapacity": [
            "POS_BALLOT"
          ]
        }
      },
      "creationTimestamp": "2001-01-01T02:01:01.000+01:00"
    },
    {
      "urn": "iso:role:3902257",
      "key": "MIRROR_CC",
      "status": "APPOINTED",
      "from": {
        "urn": "iso:committee:565405",
        "targetType": "COMMITTEE",
        " displayName": "obfuscatedForSample"
      },
      "to": {
        "urn": "iso:committee:45986",
        "targetType": "COMMITTEE",
        " displayName": "obfuscatedForSample"
      },
      "appointedBy": {
        "urn": "iso:organization:1835",
        "targetType": "ORGANIZATION",
        " displayName": "obfuscatedForSample"
      },
      "metadata": {
        "ballotTypes": [],
        "relationCapacities": {
          "relationCapacity": [
            "POS_BALLOT"
          ]
        }
      },
      "creationTimestamp": "2001-01-01T02:01:01.000+01:00"
    },
    {
      "urn": "iso:role:3902738",
      "key": "MIRROR_CC",
      "status": "APPOINTED",
      "from": {
        "urn": "iso:committee:577742",
        "targetType": "COMMITTEE",
        " displayName": "obfuscatedForSample"
      },
      "to": {
        "urn": "iso:committee:45986",
        "targetType": "COMMITTEE",
        " displayName": "obfuscatedForSample"
      },
      "appointedBy": {
        "urn": "iso:organization:1897",
        "targetType": "ORGANIZATION",
        " displayName": "obfuscatedForSample"
      },
      "metadata": {
        "ballotTypes": [],
        "relationCapacities": {
          "relationCapacity": [
            "POS_BALLOT"
          ]
        }
      },
      "creationTimestamp": "2001-01-01T02:01:01.000+01:00"
    },
    {
      "urn": "iso:role:3904205",
      "key": "MIRROR_CC",
      "status": "APPOINTED",
      "from": {
        "urn": "iso:committee:564361",
        "targetType": "COMMITTEE",
        " displayName": "obfuscatedForSample"
      },
      "to": {
        "urn": "iso:committee:45986",
        "targetType": "COMMITTEE",
        " displayName": "obfuscatedForSample"
      },
      "appointedBy": {
        "urn": "iso:organization:1770",
        "targetType": "ORGANIZATION",
        " displayName": "obfuscatedForSample"
      },
      "metadata": {
        "ballotTypes": [],
        "relationCapacities": {
          "relationCapacity": [
            "POS_BALLOT"
          ]
        }
      },
      "creationTimestamp": "2001-01-01T02:01:01.000+01:00"
    },
    {
      "urn": "iso:role:3992885",
      "key": "PART_O_OC",
      "status": "APPOINTED",
      "from": {
        "urn": "iso:organization:1759",
        "targetType": "ORGANIZATION",
        " displayName": "obfuscatedForSample"
      },
      "to": {
        "urn": "iso:committee:45986",
        "targetType": "COMMITTEE",
        " displayName": "obfuscatedForSample"
      },
      "appointedBy": {
        "urn": "iso:organization:1759",
        "targetType": "ORGANIZATION",
        " displayName": "obfuscatedForSample"
      },
      "metadata": {
        "ballotTypes": [],
        "relationCapacities": {
          "relationCapacity": []
        }
      },
      "creationTimestamp": "2001-01-01T02:01:01.000+01:00"
    },
    {
      "urn": "iso:role:3993218",
      "key": "PART_O_OC",
      "status": "APPOINTED",
      "from": {
        "urn": "iso:organization:1819",
        "targetType": "ORGANIZATION",
        " displayName": "obfuscatedForSample"
      },
      "to": {
        "urn": "iso:committee:45986",
        "targetType": "COMMITTEE",
        " displayName": "obfuscatedForSample"
      },
      "appointedBy": {
        "urn": "iso:organization:1819",
        "targetType": "ORGANIZATION",
        " displayName": "obfuscatedForSample"
      },
      "metadata": {
        "ballotTypes": [],
        "relationCapacities": {
          "relationCapacity": []
        }
      },
      "creationTimestamp": "2001-01-01T02:01:01.000+01:00"
    },
    {
      "urn": "iso:role:3993237",
      "key": "PART_O_OC",
      "status": "APPOINTED",
      "from": {
        "urn": "iso:organization:1700",
        "targetType": "ORGANIZATION",
        " displayName": "obfuscatedForSample"
      },
      "to": {
        "urn": "iso:committee:45986",
        "targetType": "COMMITTEE",
        " displayName": "obfuscatedForSample"
      },
      "appointedBy": {
        "urn": "iso:organization:1700",
        "targetType": "ORGANIZATION",
        " displayName": "obfuscatedForSample"
      },
      "metadata": {
        "ballotTypes": [],
        "relationCapacities": {
          "relationCapacity": []
        }
      },
      "creationTimestamp": "2001-01-01T02:01:01.000+01:00"
    },
    {
      "urn": "iso:role:3994741",
      "key": "PART_O_OC",
      "status": "APPOINTED",
      "from": {
        "urn": "iso:organization:2158",
        "targetType": "ORGANIZATION",
        " displayName": "obfuscatedForSample"
      },
      "to": {
        "urn": "iso:committee:45986",
        "targetType": "COMMITTEE",
        " displayName": "obfuscatedForSample"
      },
      "appointedBy": {
        "urn": "iso:organization:2158",
        "targetType": "ORGANIZATION",
        " displayName": "obfuscatedForSample"
      },
      "metadata": {
        "ballotTypes": [],
        "relationCapacities": {
          "relationCapacity": []
        }
      },
      "creationTimestamp": "2001-01-01T02:01:01.000+01:00"
    },
    {
      "urn": "iso:role:3995030",
      "key": "PART_O_OC",
      "status": "APPOINTED",
      "from": {
        "urn": "iso:organization:2054",
        "targetType": "ORGANIZATION",
        " displayName": "obfuscatedForSample"
      },
      "to": {
        "urn": "iso:committee:45986",
        "targetType": "COMMITTEE",
        " displayName": "obfuscatedForSample"
      },
      "appointedBy": {
        "urn": "iso:organization:2054",
        "targetType": "ORGANIZATION",
        " displayName": "obfuscatedForSample"
      },
      "metadata": {
        "ballotTypes": [],
        "relationCapacities": {
          "relationCapacity": []
        }
      },
      "creationTimestamp": "2001-01-01T02:01:01.000+01:00"
    },
    {
      "urn": "iso:role:3995451",
      "key": "PART_O_OC",
      "status": "APPOINTED",
      "from": {
        "urn": "iso:organization:1485",
        "targetType": "ORGANIZATION",
        " displayName": "obfuscatedForSample"
      },
      "to": {
        "urn": "iso:committee:45986",
        "targetType": "COMMITTEE",
        " displayName": "obfuscatedForSample"
      },
      "appointedBy": {
        "urn": "iso:organization:1485",
        "targetType": "ORGANIZATION",
        " displayName": "obfuscatedForSample"
      },
      "metadata": {
        "ballotTypes": [],
        "relationCapacities": {
          "relationCapacity": []
        }
      },
      "creationTimestamp": "2001-01-01T02:01:01.000+01:00"
    },
    {
      "urn": "iso:role:3995538",
      "key": "PART_O_OC",
      "status": "APPOINTED",
      "from": {
        "urn": "iso:organization:1667",
        "targetType": "ORGANIZATION",
        " displayName": "obfuscatedForSample"
      },
      "to": {
        "urn": "iso:committee:45986",
        "targetType": "COMMITTEE",
        " displayName": "obfuscatedForSample"
      },
      "appointedBy": {
        "urn": "iso:organization:1667",
        "targetType": "ORGANIZATION",
        " displayName": "obfuscatedForSample"
      },
      "metadata": {
        "ballotTypes": [],
        "relationCapacities": {
          "relationCapacity": []
        }
      },
      "creationTimestamp": "2001-01-01T02:01:01.000+01:00"
    },
    {
      "urn": "iso:role:3995568",
      "key": "PART_O_OC",
      "status": "APPOINTED",
      "from": {
        "urn": "iso:organization:1524",
        "targetType": "ORGANIZATION",
        " displayName": "obfuscatedForSample"
      },
      "to": {
        "urn": "iso:committee:45986",
        "targetType": "COMMITTEE",
        " displayName": "obfuscatedForSample"
      },
      "appointedBy": {
        "urn": "iso:organization:1524",
        "targetType": "ORGANIZATION",
        " displayName": "obfuscatedForSample"
      },
      "metadata": {
        "ballotTypes": [],
        "relationCapacities": {
          "relationCapacity": []
        }
      },
      "creationTimestamp": "2001-01-01T02:01:01.000+01:00"
    },
    {
      "urn": "iso:role:3996194",
      "key": "PART_O_OC",
      "status": "APPOINTED",
      "from": {
        "urn": "iso:organization:1854",
        "targetType": "ORGANIZATION",
        " displayName": "obfuscatedForSample"
      },
      "to": {
        "urn": "iso:committee:45986",
        "targetType": "COMMITTEE",
        " displayName": "obfuscatedForSample"
      },
      "appointedBy": {
        "urn": "iso:organization:1854",
        "targetType": "ORGANIZATION",
        " displayName": "obfuscatedForSample"
      },
      "metadata": {
        "ballotTypes": [],
        "relationCapacities": {
          "relationCapacity": []
        }
      },
      "creationTimestamp": "2001-01-01T02:01:01.000+01:00"
    },
    {
      "urn": "iso:role:3996287",
      "key": "PART_O_OC",
      "status": "APPOINTED",
      "from": {
        "urn": "iso:organization:2058",
        "targetType": "ORGANIZATION",
        " displayName": "obfuscatedForSample"
      },
      "to": {
        "urn": "iso:committee:45986",
        "targetType": "COMMITTEE",
        " displayName": "obfuscatedForSample"
      },
      "appointedBy": {
        "urn": "iso:organization:2058",
        "targetType": "ORGANIZATION",
        " displayName": "obfuscatedForSample"
      },
      "metadata": {
        "ballotTypes": [],
        "relationCapacities": {
          "relationCapacity": []
        }
      },
      "creationTimestamp": "2001-01-01T02:01:01.000+01:00"
    },
    {
      "urn": "iso:role:3996596",
      "key": "PART_O_OC",
      "status": "APPOINTED",
      "from": {
        "urn": "iso:organization:1561",
        "targetType": "ORGANIZATION",
        " displayName": "obfuscatedForSample"
      },
      "to": {
        "urn": "iso:committee:45986",
        "targetType": "COMMITTEE",
        " displayName": "obfuscatedForSample"
      },
      "appointedBy": {
        "urn": "iso:organization:1561",
        "targetType": "ORGANIZATION",
        " displayName": "obfuscatedForSample"
      },
      "metadata": {
        "ballotTypes": [],
        "relationCapacities": {
          "relationCapacity": []
        }
      },
      "creationTimestamp": "2001-01-01T02:01:01.000+01:00"
    },
    {
      "urn": "iso:role:3996610",
      "key": "PART_O_OC",
      "status": "APPOINTED",
      "from": {
        "urn": "iso:organization:1803",
        "targetType": "ORGANIZATION",
        " displayName": "obfuscatedForSample"
      },
      "to": {
        "urn": "iso:committee:45986",
        "targetType": "COMMITTEE",
        " displayName": "obfuscatedForSample"
      },
      "appointedBy": {
        "urn": "iso:organization:1803",
        "targetType": "ORGANIZATION",
        " displayName": "obfuscatedForSample"
      },
      "metadata": {
        "ballotTypes": [],
        "relationCapacities": {
          "relationCapacity": []
        }
      },
      "creationTimestamp": "2001-01-01T02:01:01.000+01:00"
    }
  ]
}